{
  "type": "object",
  "allOf": [
    {
      "$ref": "../../../../../../spec/fixtures/api/schemas/entities/note_user_entity.json"
    },
    {
      "properties": {
        "id": {
          "type": "integer"
        },
        "state": {
          "type": "string"
        },
        "locked": {
          "type": "boolean"
        },
        "avatar_url": {
          "type": ["string", "null"]
        },
        "path": {
          "type": "string"
        },
        "name": {
          "type": "string"
        },
        "username": {
          "type": "string"
        },
        "status_tooltip_html": {
          "$ref": "../../../../../../spec/fixtures/api/schemas/types/nullable_string.json"
        },
        "show_status": {
          "type": "boolean"
        },
        "bot": {
          "type": "boolean"
        },
        "user_type": {
          "type": "string"
        }
      },
      "additionalProperties": false,
      "required": [
        "id",
        "state",
        "locked",
        "avatar_url",
        "path",
        "name",
        "username",
        "bot",
        "user_type"
      ]
    }
  ]
}
